<svg id="Icon-Dropdown-Gray" xmlns="http://www.w3.org/2000/svg" width="14.143" height="8.485" viewBox="0 0 14.143 8.485">
  <path id="Path_14" data-name="Path 14" d="M686.105,462.081l-5.657,5.657-5.657-5.657-1.414,1.414,7.071,7.071,7.071-7.071Z" transform="translate(-673.378 -462.081)" fill="#ccc"/>
</svg>
