<svg id="Icon-Up" xmlns="http://www.w3.org/2000/svg" width="14.143" height="14" viewBox="0 0 14.143 14">

  <path id="Path_35" data-name="Path 35" d="M621.315,348.229l-5.657-5.657-1.414,1.414,4.657,4.657H608.729v2H618.9l-4.657,4.657,1.414,1.414,5.657-5.657,1.414-1.414Z" transform="translate(-342.572 622.729) rotate(-90)" fill="#003865"/>
</svg>
