<svg xmlns="http://www.w3.org/2000/svg" xmlns:xlink="http://www.w3.org/1999/xlink" viewBox="0 0 18 18">
  <defs>
    <style>
      .cls-1 {
        clip-path: url(#clip-Icon-Close);
      }

      .cls-2 {
        fill: #fff;
      }
    </style>
    <clipPath id="clip-Icon-Close">
      <rect width="18" height="18"/>
    </clipPath>
  </defs>
  <g id="Icon-Close" class="cls-1">
    <rect class="cls-2" width="18" height="18"/>
    <g id="Group_586" data-name="Group 586" transform="translate(-62.635 -82.636)">
      <g id="Group_8" data-name="Group 8" transform="translate(65.635 85.636)">
        <rect id="Rectangle_167" data-name="Rectangle 167" width="15.085" height="1.886" transform="translate(1.334 0) rotate(45)"/>
        <rect id="Rectangle_168" data-name="Rectangle 168" width="15.085" height="1.886" transform="translate(12 1.333) rotate(135)"/>
      </g>
    </g>
  </g>
</svg>
