<svg id="Icon-Arrow-Left-White" xmlns="http://www.w3.org/2000/svg" width="20" height="14.143" viewBox="0 0 20 14.143">
  <path id="Path_35" data-name="Path 35" d="M621.315,348.229l-5.657-5.657-1.414,1.414,4.657,4.657H602.729v2H618.9l-4.657,4.657,1.414,1.414,5.657-5.657,1.414-1.414Z" transform="translate(622.729 356.714) rotate(180)" fill="#fff"/>
</svg>
