<svg xmlns="http://www.w3.org/2000/svg" xmlns:xlink="http://www.w3.org/1999/xlink" viewBox="0 0 100 100">
  <defs>
    <style>
      .cls-1 {
        clip-path: url(#clip-Icon-Video);
      }

      .cls-2 {
        fill: red;
      }

      .cls-3 {
        fill: #fff;
      }
    </style>
    <clipPath id="clip-Icon-Video">
      <rect width="100" height="100"/>
    </clipPath>
  </defs>
  <g id="Icon-Video" class="cls-1">
    <rect class="cls-3" width="100" height="100"/>
    <circle id="Ellipse_2" data-name="Ellipse 2" class="cls-2" cx="50" cy="50" r="50"/>
    <g id="Group_170" data-name="Group 170" transform="translate(34 26.001)">
      <path id="Path_133" data-name="Path 133" class="cls-3" d="M38.784,21.944,4.536.728C2.04-.9,0,.3,0,3.408V44.592c0,3.1,2.04,4.312,4.536,2.68L38.784,26.056A2.926,2.926,0,0,0,40,24,2.926,2.926,0,0,0,38.784,21.944Z" transform="translate(0 0)"/>
    </g>
  </g>
</svg>
